<svg width="29" height="26" viewBox="0 0 29 26" fill="none" xmlns="http://www.w3.org/2000/svg">
<path fill-rule="evenodd" clip-rule="evenodd" d="M7.62993 11.5709C9.00038 11.0032 10.5084 10.8547 11.9632 11.1441C13.4181 11.4335 14.7545 12.1478 15.8034 13.1967C16.8522 14.2456 17.5666 15.582 17.8559 17.0368C18.1453 18.4917 17.9968 19.9997 17.4292 21.3701C16.8615 22.7406 15.9002 23.9119 14.6668 24.736C13.4335 25.5601 11.9834 26 10.5001 26H1.50006C1.07537 26 0.697003 25.7318 0.556428 25.331C0.416696 24.9327 0.542213 24.4898 0.869423 24.2239L0.876093 24.2183C0.885112 24.2105 0.902478 24.1953 0.927027 24.1725C0.97616 24.1269 1.05381 24.0511 1.15074 23.9445C1.34476 23.7311 1.61466 23.3954 1.88812 22.9305C2.43164 22.0065 3.00006 20.5549 3.00006 18.5C3.00006 17.0166 3.43992 15.5666 4.26403 14.3332C5.08815 13.0999 6.25949 12.1386 7.62993 11.5709ZM11.5731 13.1057C10.5062 12.8935 9.40029 13.0024 8.3953 13.4187C7.3903 13.8349 6.53132 14.5399 5.92697 15.4444C5.32263 16.3488 5.00006 17.4122 5.00006 18.5C5.00006 20.9451 4.31848 22.7435 3.61199 23.9445C3.60103 23.9632 3.59006 23.9817 3.57909 24H10.5001C11.5879 24 12.6512 23.6774 13.5557 23.0731C14.4602 22.4687 15.1651 21.6098 15.5814 20.6048C15.9977 19.5998 16.1066 18.4939 15.8944 17.427C15.6822 16.3601 15.1583 15.3801 14.3891 14.6109C13.62 13.8417 12.6399 13.3179 11.5731 13.1057Z" fill="white"/>
<path fill-rule="evenodd" clip-rule="evenodd" d="M19.564 6.73097C17.1147 8.92386 15.0359 11.5254 13.8534 13.1205C13.5246 13.5642 12.8983 13.6572 12.4546 13.3283C12.0109 12.9994 11.9179 12.3731 12.2468 11.9295C13.4643 10.2871 15.6356 7.56364 18.23 5.2409C20.7793 2.95853 23.9415 0.875 27.1251 0.875C27.6774 0.875 28.1251 1.32272 28.1251 1.875C28.1251 5.05859 26.0416 8.22085 23.7592 10.7701C21.4365 13.3645 18.713 15.5358 17.0706 16.7533C16.627 17.0822 16.0007 16.9892 15.6718 16.5455C15.3429 16.1019 15.4359 15.4756 15.8796 15.1467C17.4747 13.9642 20.0763 11.8855 22.2691 9.4361C24.1628 7.32097 25.6175 5.07585 26.0161 2.98401C23.9243 3.38264 21.6791 4.83732 19.564 6.73097Z" fill="white"/>
<path fill-rule="evenodd" clip-rule="evenodd" d="M14.754 8.83351C15.0255 8.35254 15.6354 8.18268 16.1164 8.45412C17.9688 9.49953 19.5004 11.0311 20.5458 12.8835C20.8173 13.3645 20.6474 13.9744 20.1664 14.2459C19.6854 14.5173 19.0755 14.3475 18.804 13.8665C17.9377 12.3314 16.6685 11.0622 15.1334 10.1959C14.6525 9.92444 14.4826 9.31449 14.754 8.83351Z" fill="white"/>
</svg>
