<svg width="18" height="18" viewBox="0 0 18 18" fill="none" xmlns="http://www.w3.org/2000/svg">
<mask id="path-1-outside-1_1402_9321" maskUnits="userSpaceOnUse" x="-7.26346" y="-6.63006" width="31.8198" height="31.8198" fill="black">
<rect fill="white" x="-7.26346" y="-6.63006" width="31.8198" height="31.8198"/>
<path fill-rule="evenodd" clip-rule="evenodd" d="M15.9129 3.55396C16.2304 3.23646 16.224 2.71526 15.8986 2.38982C15.5731 2.06438 15.0519 2.05795 14.7344 2.37545L8.98564 8.12423L3.09312 2.23172C2.76768 1.90628 2.24648 1.89985 1.92898 2.21735C1.61148 2.53485 1.61792 3.05605 1.94335 3.38148L7.83587 9.274L2.08699 15.0229C1.76949 15.3404 1.77592 15.8616 2.10136 16.187C2.42679 16.5125 2.948 16.5189 3.2655 16.2014L9.01438 10.4525L14.907 16.3451C15.2324 16.6705 15.7536 16.677 16.0711 16.3595C16.3886 16.042 16.3822 15.5208 16.0567 15.1953L10.1641 9.30274L15.9129 3.55396Z"/>
</mask>
<path fill-rule="evenodd" clip-rule="evenodd" d="M15.9129 3.55396C16.2304 3.23646 16.224 2.71526 15.8986 2.38982C15.5731 2.06438 15.0519 2.05795 14.7344 2.37545L8.98564 8.12423L3.09312 2.23172C2.76768 1.90628 2.24648 1.89985 1.92898 2.21735C1.61148 2.53485 1.61792 3.05605 1.94335 3.38148L7.83587 9.274L2.08699 15.0229C1.76949 15.3404 1.77592 15.8616 2.10136 16.187C2.42679 16.5125 2.948 16.5189 3.2655 16.2014L9.01438 10.4525L14.907 16.3451C15.2324 16.6705 15.7536 16.677 16.0711 16.3595C16.3886 16.042 16.3822 15.5208 16.0567 15.1953L10.1641 9.30274L15.9129 3.55396Z" fill="white"/>
<path d="M8.98564 8.12423L8.27853 8.83134C8.66905 9.22186 9.30222 9.22186 9.69274 8.83134L8.98564 8.12423ZM7.83587 9.274L8.54298 9.98111C8.9335 9.59058 8.9335 8.95742 8.54298 8.56689L7.83587 9.274ZM3.2655 16.2014L2.55839 15.4943L3.2655 16.2014ZM9.01438 10.4525L9.72149 9.74541C9.33096 9.35488 8.6978 9.35488 8.30727 9.74541L9.01438 10.4525ZM16.0567 15.1953L15.3496 15.9024L16.0567 15.1953ZM10.1641 9.30274L9.45704 8.59564C9.06652 8.98616 9.06652 9.61933 9.45704 10.0099L10.1641 9.30274ZM15.1915 3.09693C15.1429 3.0484 15.1164 2.93623 15.2058 2.84685L16.62 4.26106C17.3444 3.53668 17.3051 2.38211 16.6057 1.68271L15.1915 3.09693ZM15.4415 3.08255C15.3521 3.17194 15.24 3.14545 15.1915 3.09693L16.6057 1.68271C15.9063 0.983312 14.7517 0.943958 14.0273 1.66834L15.4415 3.08255ZM9.69274 8.83134L15.4415 3.08255L14.0273 1.66834L8.27853 7.41713L9.69274 8.83134ZM2.38601 2.93883L8.27853 8.83134L9.69274 7.41713L3.80023 1.52461L2.38601 2.93883ZM2.63609 2.92445C2.5467 3.01384 2.43454 2.98735 2.38601 2.93883L3.80023 1.52461C3.10083 0.825214 1.94626 0.785855 1.22187 1.51024L2.63609 2.92445ZM2.65046 2.67438C2.69898 2.7229 2.72547 2.83507 2.63609 2.92445L1.22187 1.51024C0.49749 2.23462 0.536849 3.38919 1.23625 4.08859L2.65046 2.67438ZM8.54298 8.56689L2.65046 2.67438L1.23625 4.08859L7.12876 9.98111L8.54298 8.56689ZM2.79409 15.73L8.54298 9.98111L7.12876 8.56689L1.37988 14.3158L2.79409 15.73ZM2.80846 15.4799C2.85699 15.5284 2.88347 15.6406 2.79409 15.73L1.37988 14.3158C0.655496 15.0402 0.69485 16.1947 1.39425 16.8941L2.80846 15.4799ZM2.55839 15.4943C2.64777 15.4049 2.75993 15.4314 2.80846 15.4799L1.39425 16.8941C2.09365 17.5935 3.24822 17.6329 3.9726 16.9085L2.55839 15.4943ZM8.30727 9.74541L2.55839 15.4943L3.9726 16.9085L9.72149 11.1596L8.30727 9.74541ZM15.6141 15.638L9.72149 9.74541L8.30727 11.1596L14.1999 17.0522L15.6141 15.638ZM15.364 15.6524C15.4534 15.563 15.5656 15.5895 15.6141 15.638L14.1999 17.0522C14.8993 17.7516 16.0538 17.791 16.7782 17.0666L15.364 15.6524ZM15.3496 15.9024C15.3011 15.8539 15.2746 15.7418 15.364 15.6524L16.7782 17.0666C17.5026 16.3422 17.4632 15.1876 16.7638 14.4882L15.3496 15.9024ZM9.45704 10.0099L15.3496 15.9024L16.7638 14.4882L10.8713 8.59564L9.45704 10.0099ZM15.2058 2.84685L9.45704 8.59564L10.8713 10.0099L16.62 4.26106L15.2058 2.84685Z" fill="white" mask="url(#path-1-outside-1_1402_9321)"/>
</svg>
