<svg width="1440" height="3216" viewBox="0 0 1440 3216" fill="none" xmlns="http://www.w3.org/2000/svg">
<g clip-path="url(#clip0_1413_26757)">
<rect width="1440" height="3216" fill="#050241"/>
<path d="M228.111 2157.33C274.079 2186.94 218.138 2073.64 176.605 2030.99C147.27 2000.87 189.613 1954.77 172.082 1948C141.767 1936.3 68.0857 1936.27 78.9149 1854.43C90.7934 1763.65 122.114 1721.41 119.847 1649.8C118.294 1600.74 100.629 1587.78 112.543 1550.54C134.241 1482.73 65.163 1504.26 43.9378 1436.02C31.9348 1394.49 67.9527 1333.99 44.9314 1299.25C17.722 1258.18 -7.59157 1248.12 -78.9978 1233.03C-114.04 1225.62 -144.675 1210.81 -165.622 1175.85C-312.934 930.106 -324.215 1278.37 -347.576 1406.39C-353.277 1461.02 -527.669 1641.9 -539.949 1689.24C-586.756 1878.66 -540.407 1819.88 -348.319 1862.05C-215.532 1897.39 -77.3649 2060.67 19.9968 2070.19C164.644 2084.33 126.263 2091.71 228.111 2157.33Z" stroke="#4E00FF" stroke-width="0.5" stroke-miterlimit="10"/>
<path d="M115.711 1340.94C112.867 1405.79 85.8846 1444.31 116.519 1458.21C138.794 1462.63 167.716 1407.97 191.576 1419.28C220.181 1432.83 184.998 1478.12 186.206 1505.05C187.134 1525.78 232.244 1540.89 226.527 1579.4C219.809 1624.7 172.185 1608.66 159.394 1650.22C153.58 1689.83 204.771 1695.77 186.302 1747.78C174.669 1789.91 110.088 1825.76 119.877 1870.37C135.392 1950.04 263.744 1786.32 271.899 1896.76C275.545 1955.53 219.671 1976.69 216.784 2012.19C214.863 2035.72 249.276 2069.49 258.984 2086.14C280.716 2123.41 288.104 2194.7 266.43 2215.39C241.325 2239.37 195.82 2168.88 125.587 2139.92C-65.6454 2061.06 -118.249 2124.09 -218.55 2053.26C-322.938 1979.55 -303.566 1901.35 -386.667 1883.49C-485.047 1862.36 -552.977 1963.2 -614.39 1926.7C-771.842 1753.49 -558.57 1647.21 -401.682 1455.38C-323.13 1347.07 -416.549 968.33 -334.43 928.003C-297.997 905.212 -236.281 944.217 -203.42 978.319C-122.275 1062.52 -174.303 1119.39 -83.7916 1195.67C-24.2025 1241.69 137.148 1180.39 115.711 1340.94Z" stroke="#4E00FF" stroke-width="0.5" stroke-miterlimit="10"/>
<path d="M72.2716 1295.37C75.9399 1351.68 52.4342 1351.04 49.7707 1405.63C47.3511 1455.35 91.1012 1490.69 120.265 1480.55C137.502 1478.37 147.54 1473.12 151.222 1480.9C157.655 1494.5 133.664 1511.99 145.996 1524.8C155.901 1535.09 178.656 1544.07 178.138 1563.03C164.65 1617.79 128.444 1639.56 155.491 1698.33C186.576 1752.59 82.7219 1794.26 105.037 1868.98C109.298 1893.1 126.957 1922.5 164.458 1913.99C232.805 1898.49 257.926 1907.58 214.829 1976C193.662 2009.61 214.709 2044.29 232.528 2074.41C268.76 2146.33 261.312 2233.02 172.576 2131.96C132.878 2090.51 115.533 2099.01 24.0717 2085.56C-162.307 2084.14 -190.597 1950.08 -327.486 1888.66C-426.079 1856.31 -462.83 1869.81 -513.923 1868.34C-540.83 1867.56 -563.774 1850.09 -572.172 1823.32C-593.374 1755.65 -558.434 1662.68 -500.834 1598.6C-372.732 1479.94 -348.166 1394.59 -349.915 1269.63C-346.239 1172.54 -360.564 1066.5 -268.08 1034.73C-264.495 1033.5 -260.732 1033.23 -257.249 1034.14C-215.695 1044.88 -152.947 1161.05 -117.793 1191.12C-54.409 1259.82 57.3748 1210.8 72.2619 1295.36L72.2716 1295.37Z" stroke="#4E00FF" stroke-width="0.5" stroke-miterlimit="10"/>
<path d="M-171.746 1378.9C-147.699 1295.3 -94.4283 1198.42 -42.8794 1267.94C-25.0097 1311.84 -66.1944 1376.65 -61.5566 1421.94C-57.7139 1459.39 -21.6064 1454.59 -12.4461 1484.66C-2.85272 1516.17 -44.664 1549.11 -36.4684 1579.59C-16.9775 1652.05 68.0837 1744.56 -10.3402 1779.74C-144.125 1839.77 -41.6925 1733.2 -131.048 1657.9C-186.983 1610.78 -377.366 1579.31 -267.509 1466.63C-237.716 1438.05 -183.257 1420.11 -171.751 1378.91L-171.746 1378.9Z" stroke="#4E00FF" stroke-width="0.5" stroke-miterlimit="10"/>
<path d="M-130.546 1411.2C-142.178 1418.76 -158.184 1439.79 -165.361 1446.49C-185.656 1473.01 -267.067 1494.15 -246.844 1536.48C-223.049 1569.43 -174.487 1554.2 -147.712 1581.48C-140.212 1589.12 -82.1149 1672.49 -61.3686 1659.67C-44.6347 1649.31 -62.5226 1593.68 -64.0498 1585.56C-69.9859 1554.1 -37.0973 1526.93 -46.2799 1496.78C-52.6831 1475.75 -82.8045 1471.31 -86.3076 1450.26C-96.2916 1390.38 -116.695 1402.22 -130.541 1411.22L-130.546 1411.2Z" stroke="#4E00FF" stroke-width="0.5" stroke-miterlimit="10"/>
<path d="M17.8526 1292.75C0.554258 1269.47 -33.3921 1252.28 -27.9602 1297.17C-22.5283 1342.06 -58.4007 1380.44 -38.3838 1405.03C46.5383 1509.33 -25.3351 1555.06 -12.4765 1581.68C21.0028 1651.04 83.3706 1711.25 3.72257 1782.71C-60.1697 1844.18 -140.605 1778.52 -209.019 1806.04C-215.3 1808.57 -221.694 1810.61 -228.139 1812.35C-351.204 1845.52 -272.741 1876.88 -199.431 1910.64C-147.731 1935.34 -100.175 1962.88 -53.4476 1995.18C-1.78605 2023.29 66.3775 2025.88 115.323 2060.18C166.563 2093.42 199.669 2138.47 219.182 2139.02C252.875 2119.72 153.708 2059.28 155.947 2022.57C152.436 2010.45 157.307 1980.72 149.787 1970.04C114.662 1933.12 70.6213 1928.32 70.91 1897.31C71.5141 1832.88 70.2669 1800.2 93.3563 1743C97.7543 1715.3 81.7445 1684.85 86.2671 1656.32C89.5983 1635.32 102.457 1609.76 97.4252 1592.36C72.9035 1471.34 11.9359 1495.72 41.3365 1353.03C43.4478 1342.78 39.3849 1321.75 17.8526 1292.75Z" stroke="#4E00FF" stroke-width="0.5" stroke-miterlimit="10"/>
<path d="M20.8897 1410.54C35.635 1383.95 20.8431 1297.48 -1.58062 1297.5C-10.4171 1298.09 -2.62764 1320.38 -6.74732 1334.74C-10.4588 1347.67 -21.5443 1367.02 -20.3426 1380.33C-17.7429 1415.17 4.91927 1429.55 20.8846 1410.55L20.8897 1410.54Z" stroke="#4E00FF" stroke-width="0.5" stroke-miterlimit="10"/>
<path d="M76.6575 1607.78C68.6463 1567.6 56.5281 1526.73 31.1025 1509.29C7.07161 1492.81 6.27669 1538.04 9.77588 1568.4C14.5203 1609.56 46.8578 1595.57 49.86 1659.96C51.6305 1672.21 49.1114 1740.36 66.7885 1739.56C81.1387 1738.92 69.2826 1663.34 72.7442 1648.32C73.6091 1644.58 78.4232 1620.92 76.6427 1607.78L76.6575 1607.78Z" stroke="#4E00FF" stroke-width="0.5" stroke-miterlimit="10"/>
<path d="M201.668 2106.09C182.533 2080.57 146.661 2047.71 133.568 2015.87C129.505 2006 123.512 1997.33 115.909 1990.47C74.7377 1953.31 45.0805 1915.15 39.9624 1847.5C44.285 1795.78 60.8506 1750.09 12.2758 1812.03C-68.1268 1884.94 -67.8659 1789.12 -192.909 1825.27C-200.108 1827.34 -211.996 1829.43 -219.299 1829.98C-395.114 1843.06 14.5437 1948.91 75.4354 2011.89C78.507 2015.07 89.6215 2026.85 112.183 2045.14C139.252 2067.09 167.298 2095.76 196.198 2112.45C211.93 2121.53 204.393 2109.69 201.688 2106.1L201.668 2106.09Z" stroke="#4E00FF" stroke-width="0.5" stroke-miterlimit="10"/>
<path d="M66.8185 1963.52C45.5012 1944.03 28.718 1918.6 27.095 1900.54C15.3906 1801.18 -30.2259 1893.16 -109.797 1859.77C-120.775 1855.87 -135.801 1834.92 -168.835 1837.78C-259.187 1850.09 -168.353 1890.51 -138.222 1893.87C-132.14 1894.55 -126.402 1896.47 -120.603 1898.26C-28.0264 1926.78 -35.832 1935.49 3.13614 1961.99C4.02456 1962.6 4.94908 1963.14 5.92962 1963.58C23.602 1971.41 48.4853 1972.21 62.8139 1985.31C133.15 2049.69 110.836 2003.73 66.8384 1963.5L66.8185 1963.52Z" stroke="#4E00FF" stroke-width="0.5" stroke-miterlimit="10"/>
<path d="M33.5463 1949.29C39.1755 1943.16 6.62296 1918.47 7.26314 1904.59C11.0388 1822.73 -26.5221 1924.77 -125.145 1869.07C-127.273 1867.87 -129.6 1867.04 -132.02 1866.57C-201.016 1853.03 -87.7767 1909.57 -47.9637 1908.25C-16.9064 1907.24 7.23697 1949.78 33.5514 1949.28L33.5463 1949.29Z" stroke="#4E00FF" stroke-width="0.5" stroke-miterlimit="10"/>
<path d="M-180.266 1201.02C-85.9188 1236.55 -152.703 1270.56 -184.12 1351.8C-188.65 1363.53 -195.719 1374.15 -204.645 1382.73C-267.517 1443.16 -383.146 1493.51 -274.236 1616.06C-229.028 1657.56 -82.1245 1671.23 -130.661 1749.93C-163.268 1787.01 -204.877 1771.09 -230.777 1784.33C-292.899 1824.93 -332.241 1879 -398.161 1827.83C-409.402 1819.11 -422.114 1812.6 -435.708 1808.5C-607.509 1756.64 -417.92 1543.8 -360.911 1454.97C-309.561 1374.96 -315.307 1158.89 -180.271 1201.03L-180.266 1201.02Z" stroke="#4E00FF" stroke-width="0.5" stroke-miterlimit="10"/>
<path d="M-461.749 1756.42C-448.047 1798.99 -399.999 1776.34 -372.924 1795.93C-355.839 1812.69 -357.154 1839.03 -331.945 1827.78C-297.104 1813.14 -286.15 1766.26 -253.758 1765.01C-163.406 1761.54 -145.716 1732.02 -168.414 1698.45C-210.998 1635.46 -377.846 1652.47 -328.635 1477.23C-309.783 1413.38 -247.441 1396.49 -206.257 1343.93C-177.871 1294.34 -116.853 1240.02 -186.774 1211.38C-221.324 1202.69 -261.013 1229.83 -275.279 1279C-291.772 1373.43 -322.275 1414.41 -341.745 1444.27C-384.548 1503.63 -423.821 1578.15 -431.611 1649.8C-443.02 1698.75 -469.83 1714.16 -461.749 1756.42Z" stroke="#4E00FF" stroke-width="0.5" stroke-miterlimit="10"/>
<path d="M-51.8639 1680.97C-36.7331 1668.91 -8.5449 1673.6 -0.981376 1703.53C6.58214 1733.46 -11.175 1759.17 -26.1605 1766.03C-41.146 1772.9 -55.5493 1781.81 -69.0628 1757.81C-82.5763 1733.82 -79.3752 1710.79 -71.9651 1698.54C-64.5551 1686.29 -51.8587 1680.96 -51.8587 1680.96L-51.8639 1680.97Z" stroke="#4E00FF" stroke-width="0.5" stroke-miterlimit="10"/>
<path d="M1981.38 833.405C2042.31 821.81 1911.12 779.78 1844.33 778.71C1797.15 777.952 1799.11 713.957 1779.21 721.664C1744.8 735 1682.15 788.052 1630.94 720.788C1574.01 646.274 1569.45 593.019 1514.65 542.616C1477.11 508.093 1452.52 511.4 1435.16 475.761C1403.53 410.857 1360.71 476.256 1292.29 441.964C1251.43 420.434 1237.38 350.533 1192.16 341.871C1138.71 331.631 1109.76 342.551 1037.93 383.021C1002.68 402.879 965.705 414.186 922.089 403.873C615.446 331.426 862.983 592.602 937.646 702.448C973.131 746.246 958.455 1003.3 982.967 1046.54C1083.03 1217.88 1079.03 1141.79 1273.43 1034.07C1412.39 964.095 1650.38 983.214 1740.15 919.996C1873.54 826.08 1846.37 859.09 1981.38 833.405Z" stroke="#4E00FF" stroke-width="0.5" stroke-miterlimit="10"/>
<path d="M1283.1 321.18C1328.56 370.35 1334.07 417.776 1370.37 405.805C1392.56 392.975 1376.79 332.427 1405.42 323.456C1439.74 312.694 1443.27 370.946 1464.18 389.646C1480.27 404.038 1529.77 382.523 1553.35 414.625C1581.08 452.38 1528.76 475.026 1548.57 514.44C1572.87 547.407 1620.77 514.847 1643.47 565.945C1664.69 604.937 1636.26 677.501 1677.52 702.863C1749.53 749.574 1737.75 538.164 1826.22 612.533C1872.71 652.615 1840.84 708.231 1864.6 736.108C1880.34 754.588 1934.52 754.337 1955.06 759.442C2001.05 770.869 2059.96 817.347 2056.82 847.996C2053.18 883.499 1962.46 865.059 1881.39 894.61C1660.62 975.055 1662.45 1058.75 1524.9 1079.53C1381.76 1101.16 1340.48 1030.38 1256.67 1077.27C1157.44 1132.78 1174.16 1254.98 1095.01 1272.69C833.305 1260.26 936.11 1029.41 927.827 777.018C914.63 641.74 555.598 433.835 595.623 345.382C609.763 302.578 691.016 286.465 744.125 287.573C875.263 290.305 873.024 369.1 1006.27 359.33C1090.9 349.848 1182.79 189.086 1283.1 321.18Z" stroke="#4E00FF" stroke-width="0.5" stroke-miterlimit="10"/>
<path d="M1212.53 319.357C1257.22 357.629 1236.77 374.097 1274.82 415.685C1309.47 453.551 1372.74 447.716 1390.04 419.339C1403.09 405.344 1407.74 394.297 1416.62 397.296C1432.12 402.544 1424.65 432.536 1444.59 432.962C1460.6 433.303 1486.57 423.434 1500.13 437.585C1529.09 487.085 1514.39 528.985 1580.77 552.204C1647.26 569.244 1589.75 674.323 1663.88 712.543C1685.31 727.002 1722.03 735.643 1747.62 702.449C1794.27 641.957 1822.33 630.463 1836.22 711.223C1843.04 750.888 1886.53 760.927 1923.92 769.979C2007.81 796.138 2065.49 864.49 1915.45 854.977C1851.1 853.453 1842.63 872.121 1754.97 928.234C1595.5 1061.45 1472.48 984.422 1310.78 1038.39C1203.1 1085.91 1181.83 1122.19 1137.32 1157.92C1113.87 1176.74 1081.47 1180.57 1054.57 1167.17C986.585 1133.27 947.648 1040.56 949.295 952.505C970.564 774.008 928.43 694.297 834.688 604.764C766.127 531.567 675.661 464.837 730.814 375.137C732.952 371.661 735.951 368.753 739.583 366.905C782.836 344.78 921.936 383.99 974.015 380.514C1078.61 384.779 1137.43 268.639 1212.52 319.361L1212.53 319.357Z" stroke="#4E00FF" stroke-width="0.5" stroke-miterlimit="10"/>
<path d="M1066.8 555.819C1025.52 477.757 999.267 368.992 1094.41 382.374C1142.01 401.397 1154.85 478.158 1192.23 507.726C1223.15 532.167 1250.3 502.673 1280.28 517.924C1311.7 533.909 1300.48 587.957 1329.95 604.204C1400.02 642.814 1540.61 648.757 1499.93 730.812C1430.54 870.796 1438.92 719.575 1307.38 729.231C1225.04 735.278 1039.99 849.547 1050.17 688.542C1054.4 646.319 1087.44 594.053 1066.8 555.831L1066.8 555.819Z" stroke="#4E00FF" stroke-width="0.5" stroke-miterlimit="10"/>
<path d="M1125.67 549.616C1121.36 563.484 1123.28 590.293 1122.13 600.331C1124.46 634.222 1070.87 708.221 1119.31 724.411C1163.86 731.214 1193.89 685.166 1236.79 685.704C1248.81 685.853 1359.74 704.584 1367.91 680.321C1374.49 660.745 1318.2 633.203 1310.92 628.407C1282.64 609.824 1290.53 566.388 1260.47 551.097C1239.51 540.433 1210.62 558.899 1192.11 546.132C1139.41 509.812 1130.8 533.109 1125.68 549.624L1125.67 549.616Z" stroke="#4E00FF" stroke-width="0.5" stroke-miterlimit="10"/>
<path d="M1050.51 434.435C1050.62 405.07 1077.04 398.192 1099.35 410.908C1102.52 412.712 1126.27 431.633 1128.47 434.561C1135.62 444.077 1144.85 465.869 1128.37 488.227C1124.88 492.957 1116.36 509.347 1114.9 515.035C1100.86 569.679 1070.43 538.929 1057.11 482.677C1052.21 461.998 1050.1 454.685 1050.51 434.435Z" stroke="#4E00FF" stroke-width="0.5" stroke-miterlimit="10"/>
<path d="M1164.35 356.657C1132.45 352.198 1090.91 364.162 1128.67 392.865C1166.43 421.568 1164.28 475.298 1199.44 478.743C1348.63 493.36 1321.3 578.355 1351.89 588.44C1431.55 614.721 1529.02 613.546 1514.08 722.838C1505.15 813.525 1388.31 823.754 1350.48 893.028C1347 899.389 1343.08 905.484 1338.88 911.386C1258.77 1024.13 1348.62 990.404 1435.85 962.123C1498.03 942.83 1558.79 928.59 1622.35 918.398C1687.02 901.614 1746.87 854.397 1813.79 844.061C1881.89 831.307 1943.29 840.195 1960.28 826.536C1974.66 788.242 1845.75 815.759 1820.55 787.469C1808.62 781.198 1790.81 756.087 1776.53 753.739C1719.42 752.214 1678.44 780.449 1655.79 757.713C1608.73 710.458 1583.55 687.611 1560.95 629.423C1544.23 606.126 1508.14 595.531 1490.92 571.543C1478.25 553.885 1470.31 526.053 1453.18 517.036C1342.99 446.761 1309.17 508.392 1228.81 383.537C1223.04 374.57 1204.06 362.215 1164.35 356.657Z" stroke="#4E00FF" stroke-width="0.5" stroke-miterlimit="10"/>
<path d="M1253.89 440.055C1246.79 410.114 1170.38 357.94 1151.33 374.101C1144.26 380.895 1167.34 391.485 1174.43 404.881C1180.83 416.949 1185.69 438.994 1196.54 447.803C1224.47 471.243 1254.35 465.368 1253.9 440.067L1253.89 440.055Z" stroke="#4E00FF" stroke-width="0.5" stroke-miterlimit="10"/>
<path d="M1446.91 543.195C1410.44 519.77 1369.96 498.803 1335.48 504.447C1302.89 509.783 1335.6 543.218 1360.99 562.758C1395.42 589.252 1412.57 555.789 1462.67 600.417C1473.21 608.041 1521.39 659.372 1535.82 646.061C1547.54 635.254 1481.67 588.882 1473.52 575.472C1471.5 572.134 1458.12 551.476 1446.9 543.21L1446.91 543.195Z" stroke="#4E00FF" stroke-width="0.5" stroke-miterlimit="10"/>
<path d="M1921.07 815.221C1885.97 810.465 1831.22 812.426 1796.58 798.72C1785.84 794.475 1774.34 792.492 1762.82 792.989C1700.39 795.646 1647.01 789.277 1592.71 743.811C1558.2 703.116 1538.55 657.987 1542.99 737.978C1528.48 848.872 1457.96 779.059 1378.37 895.398C1373.78 902.091 1365.22 912.172 1359.41 917.826C1219.64 1053.98 1645.98 835.805 1744.23 837.704C1749.19 837.801 1767.33 838.354 1800.02 835.397C1839.23 831.846 1884.24 832.478 1921.12 823.784C1941.2 819.05 1926.05 815.881 1921.1 815.214L1921.07 815.221Z" stroke="#4E00FF" stroke-width="0.5" stroke-miterlimit="10"/>
<path d="M1701.2 808.764C1668.69 809.957 1635.65 803.571 1620.93 791.615C1537.63 727.857 1566.76 827.542 1474.48 860.597C1462.28 865.676 1434.03 861.274 1408.07 887.146C1340.36 961.177 1447.41 925.113 1475.5 905.855C1481.17 901.967 1487.47 899.228 1493.72 896.351C1593.46 850.39 1593.25 862.338 1645.94 853.529C1647.15 853.332 1648.33 853.054 1649.49 852.669C1670.29 845.631 1692.03 828.283 1713.88 827.483C1821.19 823.594 1768.3 806.278 1701.2 808.738L1701.2 808.764Z" stroke="#4E00FF" stroke-width="0.5" stroke-miterlimit="10"/>
<path d="M1662.41 822.394C1662.67 813.887 1616.78 819.396 1607.07 808.849C1549.84 746.645 1593.25 847.844 1468.3 878.414C1465.61 879.073 1463.02 880.144 1460.61 881.548C1391.97 921.407 1529.97 880.923 1562.83 851.289C1588.48 828.178 1640.41 841.7 1662.41 822.382L1662.41 822.394Z" stroke="#4E00FF" stroke-width="0.5" stroke-miterlimit="10"/>
<path d="M928.224 432.708C1034.65 390.565 1002.99 463.382 1036.27 545.043C1041.08 556.829 1042.92 569.64 1041.67 582.305C1032.84 671.494 971.734 791.371 1154.78 801.969C1223.85 799.558 1358.8 703.672 1375.65 795.816C1375.31 846.247 1328.2 864.654 1315.96 892.93C1293.13 967.177 1299.61 1034.8 1205.8 1045.11C1189.81 1046.86 1174.2 1051.29 1159.62 1058.11C975.301 1144.17 979.304 852.957 962.18 747.354C946.748 652.225 782.343 499.371 928.227 432.719L928.224 432.708Z" stroke="#4E00FF" stroke-width="0.5" stroke-miterlimit="10"/>
<path d="M1099.03 1039.02C1142.11 1060.08 1166.22 1009.01 1203.7 1003.75C1230.6 1003.62 1248.93 1023.71 1262.05 997.374C1280.85 961.638 1255.55 919.682 1282.16 895.447C1356.39 827.841 1349.63 793.65 1305.56 785.609C1222.85 770.51 1093.6 903.056 1006.05 740.28C974.927 680.301 1015.45 623.129 1011.64 555.269C999.163 498.794 1010.92 415.373 930.342 444.923C894.563 463.5 880.863 511.805 905.042 557.81C960.743 638.304 965.07 690.05 970.568 725.772C978.015 799.736 999.653 882.17 1045.93 939.842C1072.37 983.625 1060.97 1014.14 1099.03 1039.02Z" stroke="#4E00FF" stroke-width="0.5" stroke-miterlimit="10"/>
<path d="M948.351 603.101C947.319 589.864 941.052 575.689 938.278 570.637C918.632 534.841 888.523 485.886 934.309 464.282C1038.24 440.883 992.991 801.409 948.351 603.101Z" stroke="#4E00FF" stroke-width="0.5" stroke-miterlimit="10"/>
<path d="M1024.2 817.716C1042.16 797.8 1105.54 843.235 1147.62 844.9C1192.33 846.677 1289.72 780.553 1292.39 828.376C1294.16 859.897 1258.16 876.135 1254.05 907.387C1256.91 961.793 1254.96 985.559 1202.07 993.798C1189.38 995.77 1177.38 1000.9 1167.09 1008.58C1120.81 1043.07 1091.6 1014.29 1073.31 945.983C1062.94 922.211 1004.63 839.396 1024.2 817.716Z" stroke="#4E00FF" stroke-width="0.5" stroke-miterlimit="10"/>
<path d="M1244 869.606C1283.73 779.168 1182.11 875.62 1145.57 866.838C1072.91 859.199 1008.08 813.948 1075.58 917.619C1139.06 1079.26 1221.35 939.287 1243.99 869.61L1244 869.606Z" stroke="#4E00FF" stroke-width="0.5" stroke-miterlimit="10"/>
<path fill-rule="evenodd" clip-rule="evenodd" d="M1188.9 875.032C1181.88 875.017 1176.56 884.576 1170.65 886.868C1130.53 902.407 1098.08 849.047 1070.16 872.483C1066.86 878.5 1076.9 891.59 1084.81 902.691C1088.1 907.284 1090.73 912.323 1092.73 917.605C1129.93 1015.58 1242.06 900.747 1188.9 875.032Z" stroke="#4E00FF" stroke-width="0.5" stroke-miterlimit="10"/>
<path d="M1073.03 447.569C1067.85 457.411 1068.31 467.468 1073.11 480.234C1077.91 493 1089.05 504.62 1099.91 493.711C1110.77 482.801 1129.45 472.813 1124.7 457.523C1119.96 442.232 1100.69 431.447 1091.35 431.002C1082 430.557 1078.83 436.557 1073.03 447.58L1073.03 447.569Z" stroke="#4E00FF" stroke-width="0.5" stroke-miterlimit="10"/>
<path d="M1391.71 688.951C1395.67 669.288 1423.09 652.392 1451.62 668.692C1480.14 684.991 1484.03 716.461 1476.36 732.245C1468.7 748.029 1463.03 764.877 1433.83 757.175C1404.63 749.473 1390.35 730.438 1387.6 716.2C1384.86 701.962 1391.71 688.939 1391.71 688.939L1391.71 688.951Z" stroke="#4E00FF" stroke-width="0.5" stroke-miterlimit="10"/>
<path d="M1424.79 692.941C1440.08 691.238 1457.47 703.759 1455.91 717.647C1454.36 731.535 1439.68 743.639 1428.85 741.134C1418.02 738.629 1397.17 730.842 1398.92 720.254C1400.66 709.665 1403.74 695.293 1424.79 692.953L1424.79 692.941Z" stroke="#4E00FF" stroke-width="0.5" stroke-miterlimit="10"/>
</g>
<defs>
<clipPath id="clip0_1413_26757">
<rect width="1440" height="3216" fill="white"/>
</clipPath>
</defs>
</svg>
